-- Merging decision tree log ---
manifest
ADDED from /Users/admin/Desktop/ONGOING_PROJECTS/IONIC_APPS/ionic-smartapprovals/platforms/android/app/src/main/AndroidManifest.xml:2:1-20:12
INJECTED from /Users/admin/Desktop/ONGOING_PROJECTS/IONIC_APPS/ionic-smartapprovals/platforms/android/app/src/main/AndroidManifest.xml:2:1-20:12
INJECTED from /Users/admin/Desktop/ONGOING_PROJECTS/IONIC_APPS/ionic-smartapprovals/platforms/android/app/src/main/AndroidManifest.xml:2:1-20:12
INJECTED from /Users/admin/Desktop/ONGOING_PROJECTS/IONIC_APPS/ionic-smartapprovals/platforms/android/app/src/main/AndroidManifest.xml:2:1-20:12
MERGED from [com.android.support:support-v4:27.1.1] /Users/admin/.gradle/caches/transforms-1/files-1.1/support-v4-27.1.1.aar/c92c47a744ef90d119354fac8c127078/AndroidManifest.xml:17:1-22:12
MERGED from [com.android.support:support-media-compat:27.1.1] /Users/admin/.gradle/caches/transforms-1/files-1.1/support-media-compat-27.1.1.aar/1123d0545d91f3ba412e4a13f1028094/AndroidManifest.xml:17:1-22:12
MERGED from [com.android.support:support-fragment:27.1.1] /Users/admin/.gradle/caches/transforms-1/files-1.1/support-fragment-27.1.1.aar/b0fd179bdf7b7449038884bdfd7b33ef/AndroidManifest.xml:17:1-22:12
MERGED from [com.android.support:support-core-ui:27.1.1] /Users/admin/.gradle/caches/transforms-1/files-1.1/support-core-ui-27.1.1.aar/99aaae458787683b86a8027ce891a338/AndroidManifest.xml:17:1-22:12
MERGED from [com.android.support:support-core-utils:27.1.1] /Users/admin/.gradle/caches/transforms-1/files-1.1/support-core-utils-27.1.1.aar/374e70a71fe57411277e4d8ba1418ad5/AndroidManifest.xml:17:1-22:12
MERGED from [com.android.support:support-compat:27.1.1] /Users/admin/.gradle/caches/transforms-1/files-1.1/support-compat-27.1.1.aar/21cc5b136f7f30f69bcf04fda3ff4d2f/AndroidManifest.xml:17:1-22:12
MERGED from [:CordovaLib] /Users/admin/Desktop/ONGOING_PROJECTS/IONIC_APPS/ionic-smartapprovals/platforms/android/CordovaLib/build/intermediates/manifests/full/release/AndroidManifest.xml:20:1-27:12
MERGED from [android.arch.lifecycle:runtime:1.1.0] /Users/admin/.gradle/caches/transforms-1/files-1.1/runtime-1.1.0.aar/1863d38b855d37be4dc965f204346d42/AndroidManifest.xml:17:1-22:12
MERGED from [android.arch.lifecycle:livedata-core:1.1.0] /Users/admin/.gradle/caches/transforms-1/files-1.1/livedata-core-1.1.0.aar/c44fb663aa7118fea4a2f37115e983fe/AndroidManifest.xml:17:1-22:12
MERGED from [android.arch.lifecycle:viewmodel:1.1.0] /Users/admin/.gradle/caches/transforms-1/files-1.1/viewmodel-1.1.0.aar/68e1079ddfd118fcf031411a36cd51d2/AndroidManifest.xml:17:1-22:12
MERGED from [android.arch.core:runtime:1.1.0] /Users/admin/.gradle/caches/transforms-1/files-1.1/runtime-1.1.0.aar/0bec1e114547f5c45966fc2dc1b07553/AndroidManifest.xml:17:1-22:12
INJECTED from /Users/admin/Desktop/ONGOING_PROJECTS/IONIC_APPS/ionic-smartapprovals/platforms/android/app/src/main/AndroidManifest.xml:2:1-20:12
INJECTED from /Users/admin/Desktop/ONGOING_PROJECTS/IONIC_APPS/ionic-smartapprovals/platforms/android/app/src/main/AndroidManifest.xml:2:1-20:12
INJECTED from /Users/admin/Desktop/ONGOING_PROJECTS/IONIC_APPS/ionic-smartapprovals/platforms/android/app/src/main/AndroidManifest.xml:2:1-20:12
	package
		ADDED from /Users/admin/Desktop/ONGOING_PROJECTS/IONIC_APPS/ionic-smartapprovals/platforms/android/app/src/main/AndroidManifest.xml:2:100-134
		INJECTED from /Users/admin/Desktop/ONGOING_PROJECTS/IONIC_APPS/ionic-smartapprovals/platforms/android/app/src/main/AndroidManifest.xml
		INJECTED from /Users/admin/Desktop/ONGOING_PROJECTS/IONIC_APPS/ionic-smartapprovals/platforms/android/app/src/main/AndroidManifest.xml
	android:versionName
		ADDED from /Users/admin/Desktop/ONGOING_PROJECTS/IONIC_APPS/ionic-smartapprovals/platforms/android/app/src/main/AndroidManifest.xml:2:72-99
		INJECTED from /Users/admin/Desktop/ONGOING_PROJECTS/IONIC_APPS/ionic-smartapprovals/platforms/android/app/src/main/AndroidManifest.xml
		INJECTED from /Users/admin/Desktop/ONGOING_PROJECTS/IONIC_APPS/ionic-smartapprovals/platforms/android/app/src/main/AndroidManifest.xml
	android:hardwareAccelerated
		ADDED from /Users/admin/Desktop/ONGOING_PROJECTS/IONIC_APPS/ionic-smartapprovals/platforms/android/app/src/main/AndroidManifest.xml:2:11-45
	xmlns:android
		ADDED from /Users/admin/Desktop/ONGOING_PROJECTS/IONIC_APPS/ionic-smartapprovals/platforms/android/app/src/main/AndroidManifest.xml:2:135-193
	android:versionCode
		ADDED from /Users/admin/Desktop/ONGOING_PROJECTS/IONIC_APPS/ionic-smartapprovals/platforms/android/app/src/main/AndroidManifest.xml:2:46-71
		INJECTED from /Users/admin/Desktop/ONGOING_PROJECTS/IONIC_APPS/ionic-smartapprovals/platforms/android/app/src/main/AndroidManifest.xml
		INJECTED from /Users/admin/Desktop/ONGOING_PROJECTS/IONIC_APPS/ionic-smartapprovals/platforms/android/app/src/main/AndroidManifest.xml
supports-screens
ADDED from /Users/admin/Desktop/ONGOING_PROJECTS/IONIC_APPS/ionic-smartapprovals/platforms/android/app/src/main/AndroidManifest.xml:3:5-191
	android:largeScreens
		ADDED from /Users/admin/Desktop/ONGOING_PROJECTS/IONIC_APPS/ionic-smartapprovals/platforms/android/app/src/main/AndroidManifest.xml:3:49-76
	android:smallScreens
		ADDED from /Users/admin/Desktop/ONGOING_PROJECTS/IONIC_APPS/ionic-smartapprovals/platforms/android/app/src/main/AndroidManifest.xml:3:132-159
	android:normalScreens
		ADDED from /Users/admin/Desktop/ONGOING_PROJECTS/IONIC_APPS/ionic-smartapprovals/platforms/android/app/src/main/AndroidManifest.xml:3:77-105
	android:xlargeScreens
		ADDED from /Users/admin/Desktop/ONGOING_PROJECTS/IONIC_APPS/ionic-smartapprovals/platforms/android/app/src/main/AndroidManifest.xml:3:160-188
	android:resizeable
		ADDED from /Users/admin/Desktop/ONGOING_PROJECTS/IONIC_APPS/ionic-smartapprovals/platforms/android/app/src/main/AndroidManifest.xml:3:106-131
	android:anyDensity
		ADDED from /Users/admin/Desktop/ONGOING_PROJECTS/IONIC_APPS/ionic-smartapprovals/platforms/android/app/src/main/AndroidManifest.xml:3:23-48
uses-permission#android.permission.INTERNET
ADDED from /Users/admin/Desktop/ONGOING_PROJECTS/IONIC_APPS/ionic-smartapprovals/platforms/android/app/src/main/AndroidManifest.xml:4:5-67
	android:name
		ADDED from /Users/admin/Desktop/ONGOING_PROJECTS/IONIC_APPS/ionic-smartapprovals/platforms/android/app/src/main/AndroidManifest.xml:4:22-64
application
ADDED from /Users/admin/Desktop/ONGOING_PROJECTS/IONIC_APPS/ionic-smartapprovals/platforms/android/app/src/main/AndroidManifest.xml:5:5-15:19
	android:supportsRtl
		ADDED from /Users/admin/Desktop/ONGOING_PROJECTS/IONIC_APPS/ionic-smartapprovals/platforms/android/app/src/main/AndroidManifest.xml:5:114-140
	android:label
		ADDED from /Users/admin/Desktop/ONGOING_PROJECTS/IONIC_APPS/ionic-smartapprovals/platforms/android/app/src/main/AndroidManifest.xml:5:81-113
	android:hardwareAccelerated
		ADDED from /Users/admin/Desktop/ONGOING_PROJECTS/IONIC_APPS/ionic-smartapprovals/platforms/android/app/src/main/AndroidManifest.xml:5:18-52
	android:icon
		ADDED from /Users/admin/Desktop/ONGOING_PROJECTS/IONIC_APPS/ionic-smartapprovals/platforms/android/app/src/main/AndroidManifest.xml:5:53-80
activity#io.smartapprovalsiOS.com.MainActivity
ADDED from /Users/admin/Desktop/ONGOING_PROJECTS/IONIC_APPS/ionic-smartapprovals/platforms/android/app/src/main/AndroidManifest.xml:6:9-11:20
	android:label
		ADDED from /Users/admin/Desktop/ONGOING_PROJECTS/IONIC_APPS/ionic-smartapprovals/platforms/android/app/src/main/AndroidManifest.xml:6:97-134
	android:launchMode
		ADDED from /Users/admin/Desktop/ONGOING_PROJECTS/IONIC_APPS/ionic-smartapprovals/platforms/android/app/src/main/AndroidManifest.xml:6:135-165
	android:windowSoftInputMode
		ADDED from /Users/admin/Desktop/ONGOING_PROJECTS/IONIC_APPS/ionic-smartapprovals/platforms/android/app/src/main/AndroidManifest.xml:6:257-299
	android:configChanges
		ADDED from /Users/admin/Desktop/ONGOING_PROJECTS/IONIC_APPS/ionic-smartapprovals/platforms/android/app/src/main/AndroidManifest.xml:6:19-96
	android:theme
		ADDED from /Users/admin/Desktop/ONGOING_PROJECTS/IONIC_APPS/ionic-smartapprovals/platforms/android/app/src/main/AndroidManifest.xml:6:194-256
	android:name
		ADDED from /Users/admin/Desktop/ONGOING_PROJECTS/IONIC_APPS/ionic-smartapprovals/platforms/android/app/src/main/AndroidManifest.xml:6:166-193
intent-filter#android.intent.action.MAIN+android.intent.category.LAUNCHER
ADDED from /Users/admin/Desktop/ONGOING_PROJECTS/IONIC_APPS/ionic-smartapprovals/platforms/android/app/src/main/AndroidManifest.xml:7:13-10:29
	android:label
		ADDED from /Users/admin/Desktop/ONGOING_PROJECTS/IONIC_APPS/ionic-smartapprovals/platforms/android/app/src/main/AndroidManifest.xml:7:28-65
action#android.intent.action.MAIN
ADDED from /Users/admin/Desktop/ONGOING_PROJECTS/IONIC_APPS/ionic-smartapprovals/platforms/android/app/src/main/AndroidManifest.xml:8:17-69
	android:name
		ADDED from /Users/admin/Desktop/ONGOING_PROJECTS/IONIC_APPS/ionic-smartapprovals/platforms/android/app/src/main/AndroidManifest.xml:8:25-66
category#android.intent.category.LAUNCHER
ADDED from /Users/admin/Desktop/ONGOING_PROJECTS/IONIC_APPS/ionic-smartapprovals/platforms/android/app/src/main/AndroidManifest.xml:9:17-77
	android:name
		ADDED from /Users/admin/Desktop/ONGOING_PROJECTS/IONIC_APPS/ionic-smartapprovals/platforms/android/app/src/main/AndroidManifest.xml:9:27-74
provider#de.sitewaerts.cordova.documentviewer.FileProvider
ADDED from /Users/admin/Desktop/ONGOING_PROJECTS/IONIC_APPS/ionic-smartapprovals/platforms/android/app/src/main/AndroidManifest.xml:12:9-14:20
	android:grantUriPermissions
		ADDED from /Users/admin/Desktop/ONGOING_PROJECTS/IONIC_APPS/ionic-smartapprovals/platforms/android/app/src/main/AndroidManifest.xml:12:125-159
	android:authorities
		ADDED from /Users/admin/Desktop/ONGOING_PROJECTS/IONIC_APPS/ionic-smartapprovals/platforms/android/app/src/main/AndroidManifest.xml:12:19-99
	android:exported
		ADDED from /Users/admin/Desktop/ONGOING_PROJECTS/IONIC_APPS/ionic-smartapprovals/platforms/android/app/src/main/AndroidManifest.xml:12:100-124
	android:name
		ADDED from /Users/admin/Desktop/ONGOING_PROJECTS/IONIC_APPS/ionic-smartapprovals/platforms/android/app/src/main/AndroidManifest.xml:12:160-224
meta-data#android.support.FILE_PROVIDER_PATHS
ADDED from /Users/admin/Desktop/ONGOING_PROJECTS/IONIC_APPS/ionic-smartapprovals/platforms/android/app/src/main/AndroidManifest.xml:13:13-127
	android:resource
		ADDED from /Users/admin/Desktop/ONGOING_PROJECTS/IONIC_APPS/ionic-smartapprovals/platforms/android/app/src/main/AndroidManifest.xml:13:75-124
	android:name
		ADDED from /Users/admin/Desktop/ONGOING_PROJECTS/IONIC_APPS/ionic-smartapprovals/platforms/android/app/src/main/AndroidManifest.xml:13:24-74
uses-sdk
ADDED from /Users/admin/Desktop/ONGOING_PROJECTS/IONIC_APPS/ionic-smartapprovals/platforms/android/app/src/main/AndroidManifest.xml:16:5-74
INJECTED from /Users/admin/Desktop/ONGOING_PROJECTS/IONIC_APPS/ionic-smartapprovals/platforms/android/app/src/main/AndroidManifest.xml:16:5-74
MERGED from [com.android.support:support-v4:27.1.1] /Users/admin/.gradle/caches/transforms-1/files-1.1/support-v4-27.1.1.aar/c92c47a744ef90d119354fac8c127078/AndroidManifest.xml:20:5-44
MERGED from [com.android.support:support-v4:27.1.1] /Users/admin/.gradle/caches/transforms-1/files-1.1/support-v4-27.1.1.aar/c92c47a744ef90d119354fac8c127078/AndroidManifest.xml:20:5-44
MERGED from [com.android.support:support-media-compat:27.1.1] /Users/admin/.gradle/caches/transforms-1/files-1.1/support-media-compat-27.1.1.aar/1123d0545d91f3ba412e4a13f1028094/AndroidManifest.xml:20:5-44
MERGED from [com.android.support:support-media-compat:27.1.1] /Users/admin/.gradle/caches/transforms-1/files-1.1/support-media-compat-27.1.1.aar/1123d0545d91f3ba412e4a13f1028094/AndroidManifest.xml:20:5-44
MERGED from [com.android.support:support-fragment:27.1.1] /Users/admin/.gradle/caches/transforms-1/files-1.1/support-fragment-27.1.1.aar/b0fd179bdf7b7449038884bdfd7b33ef/AndroidManifest.xml:20:5-44
MERGED from [com.android.support:support-fragment:27.1.1] /Users/admin/.gradle/caches/transforms-1/files-1.1/support-fragment-27.1.1.aar/b0fd179bdf7b7449038884bdfd7b33ef/AndroidManifest.xml:20:5-44
MERGED from [com.android.support:support-core-ui:27.1.1] /Users/admin/.gradle/caches/transforms-1/files-1.1/support-core-ui-27.1.1.aar/99aaae458787683b86a8027ce891a338/AndroidManifest.xml:20:5-44
MERGED from [com.android.support:support-core-ui:27.1.1] /Users/admin/.gradle/caches/transforms-1/files-1.1/support-core-ui-27.1.1.aar/99aaae458787683b86a8027ce891a338/AndroidManifest.xml:20:5-44
MERGED from [com.android.support:support-core-utils:27.1.1] /Users/admin/.gradle/caches/transforms-1/files-1.1/support-core-utils-27.1.1.aar/374e70a71fe57411277e4d8ba1418ad5/AndroidManifest.xml:20:5-44
MERGED from [com.android.support:support-core-utils:27.1.1] /Users/admin/.gradle/caches/transforms-1/files-1.1/support-core-utils-27.1.1.aar/374e70a71fe57411277e4d8ba1418ad5/AndroidManifest.xml:20:5-44
MERGED from [com.android.support:support-compat:27.1.1] /Users/admin/.gradle/caches/transforms-1/files-1.1/support-compat-27.1.1.aar/21cc5b136f7f30f69bcf04fda3ff4d2f/AndroidManifest.xml:20:5-44
MERGED from [com.android.support:support-compat:27.1.1] /Users/admin/.gradle/caches/transforms-1/files-1.1/support-compat-27.1.1.aar/21cc5b136f7f30f69bcf04fda3ff4d2f/AndroidManifest.xml:20:5-44
MERGED from [:CordovaLib] /Users/admin/Desktop/ONGOING_PROJECTS/IONIC_APPS/ionic-smartapprovals/platforms/android/CordovaLib/build/intermediates/manifests/full/release/AndroidManifest.xml:25:5-44
MERGED from [:CordovaLib] /Users/admin/Desktop/ONGOING_PROJECTS/IONIC_APPS/ionic-smartapprovals/platforms/android/CordovaLib/build/intermediates/manifests/full/release/AndroidManifest.xml:25:5-44
MERGED from [android.arch.lifecycle:runtime:1.1.0] /Users/admin/.gradle/caches/transforms-1/files-1.1/runtime-1.1.0.aar/1863d38b855d37be4dc965f204346d42/AndroidManifest.xml:20:5-44
MERGED from [android.arch.lifecycle:runtime:1.1.0] /Users/admin/.gradle/caches/transforms-1/files-1.1/runtime-1.1.0.aar/1863d38b855d37be4dc965f204346d42/AndroidManifest.xml:20:5-44
MERGED from [android.arch.lifecycle:livedata-core:1.1.0] /Users/admin/.gradle/caches/transforms-1/files-1.1/livedata-core-1.1.0.aar/c44fb663aa7118fea4a2f37115e983fe/AndroidManifest.xml:20:5-44
MERGED from [android.arch.lifecycle:livedata-core:1.1.0] /Users/admin/.gradle/caches/transforms-1/files-1.1/livedata-core-1.1.0.aar/c44fb663aa7118fea4a2f37115e983fe/AndroidManifest.xml:20:5-44
MERGED from [android.arch.lifecycle:viewmodel:1.1.0] /Users/admin/.gradle/caches/transforms-1/files-1.1/viewmodel-1.1.0.aar/68e1079ddfd118fcf031411a36cd51d2/AndroidManifest.xml:20:5-44
MERGED from [android.arch.lifecycle:viewmodel:1.1.0] /Users/admin/.gradle/caches/transforms-1/files-1.1/viewmodel-1.1.0.aar/68e1079ddfd118fcf031411a36cd51d2/AndroidManifest.xml:20:5-44
MERGED from [android.arch.core:runtime:1.1.0] /Users/admin/.gradle/caches/transforms-1/files-1.1/runtime-1.1.0.aar/0bec1e114547f5c45966fc2dc1b07553/AndroidManifest.xml:20:5-44
MERGED from [android.arch.core:runtime:1.1.0] /Users/admin/.gradle/caches/transforms-1/files-1.1/runtime-1.1.0.aar/0bec1e114547f5c45966fc2dc1b07553/AndroidManifest.xml:20:5-44
INJECTED from /Users/admin/Desktop/ONGOING_PROJECTS/IONIC_APPS/ionic-smartapprovals/platforms/android/app/src/main/AndroidManifest.xml:16:5-74
	android:targetSdkVersion
		ADDED from /Users/admin/Desktop/ONGOING_PROJECTS/IONIC_APPS/ionic-smartapprovals/platforms/android/app/src/main/AndroidManifest.xml:16:42-71
	android:minSdkVersion
		ADDED from /Users/admin/Desktop/ONGOING_PROJECTS/IONIC_APPS/ionic-smartapprovals/platforms/android/app/src/main/AndroidManifest.xml:16:15-41
		INJECTED from /Users/admin/Desktop/ONGOING_PROJECTS/IONIC_APPS/ionic-smartapprovals/platforms/android/app/src/main/AndroidManifest.xml
		INJECTED from /Users/admin/Desktop/ONGOING_PROJECTS/IONIC_APPS/ionic-smartapprovals/platforms/android/app/src/main/AndroidManifest.xml
uses-permission#android.permission.WRITE_EXTERNAL_STORAGE
ADDED from /Users/admin/Desktop/ONGOING_PROJECTS/IONIC_APPS/ionic-smartapprovals/platforms/android/app/src/main/AndroidManifest.xml:17:5-81
	android:name
		ADDED from /Users/admin/Desktop/ONGOING_PROJECTS/IONIC_APPS/ionic-smartapprovals/platforms/android/app/src/main/AndroidManifest.xml:17:22-78
uses-permission#android.permission.READ_EXTERNAL_STORAGE
ADDED from /Users/admin/Desktop/ONGOING_PROJECTS/IONIC_APPS/ionic-smartapprovals/platforms/android/app/src/main/AndroidManifest.xml:18:5-80
	android:name
		ADDED from /Users/admin/Desktop/ONGOING_PROJECTS/IONIC_APPS/ionic-smartapprovals/platforms/android/app/src/main/AndroidManifest.xml:18:22-77
uses-permission#android.permission.ACCESS_NETWORK_STATE
ADDED from /Users/admin/Desktop/ONGOING_PROJECTS/IONIC_APPS/ionic-smartapprovals/platforms/android/app/src/main/AndroidManifest.xml:19:5-79
	android:name
		ADDED from /Users/admin/Desktop/ONGOING_PROJECTS/IONIC_APPS/ionic-smartapprovals/platforms/android/app/src/main/AndroidManifest.xml:19:22-76
